{
	"info": {
		"name": "CouchDB",
		"_postman_id": "987ccf51-3b58-f4d3-52fc-0898192c4e03",
		"description": "",
		"schema": "https://schema.getpostman.com/json/collection/v2.1.0/collection.json"
	},
	"item": [
		{
			"name": "Get All Games",
			"request": {
				"method": "GET",
				"header": [
					{
						"key": "Content-Type",
						"value": "application/json"
					}
				],
				"body": {
					"mode": "raw",
					"raw": "{\n\t\"name\": \"Destiny 2\",\n\t\"publisher\": \"Activision\",\n\t\"genre\": \"fps\",\n\t\"developers\": [\"Bungie\", \"Vicarious Visions\", \"High Moon Sutudios\"],\n\t\"platforms\": [\"ps4\", \"xbox one\", \"windows\"]\n}"
				},
				"url": {
					"raw": "http://localhost:3000/api/games",
					"protocol": "http",
					"host": [
						"localhost"
					],
					"port": "3000",
					"path": [
						"api",
						"games"
					]
				},
				"description": ""
			},
			"response": []
		},
		{
			"name": "Delete Game",
			"request": {
				"method": "DELETE",
				"header": [],
				"body": {},
				"url": {
					"raw": "http://localhost:3000/api/removegame/3172bb3c2a36ddd857c709ee04000bc4/6-b65744889b19d63a40841d0acf4065e7",
					"protocol": "http",
					"host": [
						"localhost"
					],
					"port": "3000",
					"path": [
						"api",
						"removegame",
						"3172bb3c2a36ddd857c709ee04000bc4",
						"6-b65744889b19d63a40841d0acf4065e7"
					]
				},
				"description": ""
			},
			"response": []
		},
		{
			"name": "Create Game",
			"request": {
				"method": "POST",
				"header": [
					{
						"key": "Content-Type",
						"value": "application/json"
					}
				],
				"body": {
					"mode": "raw",
					"raw": "{\n\t\"name\": \"Destiny 2\",\n\t\"publisher\": \"Activision\",\n\t\"genre\": \"fps\",\n\t\"developers\": [\"Bungie\", \"Vicarious Visions\", \"High Moon Sutudios\"],\n\t\"platforms\": [\"ps4\", \"xbox one\", \"windows\"]\n}"
				},
				"url": {
					"raw": "http://localhost:3000/api/creategame",
					"protocol": "http",
					"host": [
						"localhost"
					],
					"port": "3000",
					"path": [
						"api",
						"creategame"
					]
				},
				"description": ""
			},
			"response": []
		},
		{
			"name": "Get Game",
			"request": {
				"method": "GET",
				"header": [],
				"body": {},
				"url": {
					"raw": "localhost:3000/api/game/95a731f4f469abf3d6edc348870006e6",
					"host": [
						"localhost"
					],
					"port": "3000",
					"path": [
						"api",
						"game",
						"95a731f4f469abf3d6edc348870006e6"
					]
				},
				"description": ""
			},
			"response": []
		},
		{
			"name": "Update Game",
			"request": {
				"method": "PUT",
				"header": [
					{
						"key": "Content-Type",
						"value": "application/json"
					}
				],
				"body": {
					"mode": "raw",
					"raw": "{\n\t\"name\": \"updated testing\",\n\t\"publisher\": \"testing\"\n}"
				},
				"url": {
					"raw": "localhost:3000/api/updategame/2a530abed0fbcdac8659c8c931001255/11-0fdf75b200317a2f98110d6fdbb4c997",
					"host": [
						"localhost"
					],
					"port": "3000",
					"path": [
						"api",
						"updategame",
						"2a530abed0fbcdac8659c8c931001255",
						"11-0fdf75b200317a2f98110d6fdbb4c997"
					]
				},
				"description": ""
			},
			"response": []
		},
		{
			"name": "View under30",
			"request": {
				"method": "GET",
				"header": [],
				"body": {},
				"url": {
					"raw": "localhost:3000/api/currentcostunder30",
					"host": [
						"localhost"
					],
					"port": "3000",
					"path": [
						"api",
						"currentcostunder30"
					]
				},
				"description": ""
			},
			"response": []
		},
		{
			"name": "View Difference 20",
			"request": {
				"method": "GET",
				"header": [],
				"body": {},
				"url": {
					"raw": "localhost:3000/api/costdifferenceof20plus",
					"host": [
						"localhost"
					],
					"port": "3000",
					"path": [
						"api",
						"costdifferenceof20plus"
					]
				},
				"description": ""
			},
			"response": []
		},
		{
			"name": "View num platforms",
			"request": {
				"method": "GET",
				"header": [],
				"body": {},
				"url": {
					"raw": "http://localhost:3000/api/platforms",
					"protocol": "http",
					"host": [
						"localhost"
					],
					"port": "3000",
					"path": [
						"api",
						"platforms"
					]
				},
				"description": ""
			},
			"response": []
		}
	]
}